[
	{
		"name": "@MyByteAblaze",
		"comment": "Wonderful job on Apartment 213, love the art and the UX!",
		"date": "02-01-14",
		"link": "https://twitter.com/MyByteAblaze"
	},
	{
		"name": "J",
		"comment": "...I may have to hang an egg and bacon picture on my living room wall..."
	}
]
