[
	{
		"name": "mjrevel",
		"comment": "I enjoyed the eyebrows immensely on Fluffykin's...",
		"date": "5-2-14",
		"link": "http://www.ludumdare.com/compo/ludum-dare-29/?action=preview&uid=34082"
	},
	{
		"name": "SoupWithBits",
		"comment": "Enjoyably frustrating!",
		"date": "5-1-14",
		"link": "http://www.ludumdare.com/compo/ludum-dare-29/?action=preview&uid=37409"
	},
	{
		"name": "pancakecity",
		"comment": "Such lovely detail! I loved seeing the mistakes come out of the machines. I like the cat's character design, too.",
		"date": "5-1-14",
		"link": "http://www.ludumdare.com/compo/ludum-dare-29/?action=preview&uid=28537"
	},
	{
		"name": "Jupiter_Hadley",
		"comment": "Super well done game!",
		"date": "4-30-14",
		"link": "https://twitter.com/jupiter_hadley"
	},
	{
		"name": "Cambrian_Man",
		"comment": "Very nice aesthetic...",
		"date": "4-30-14",
		"link": "http://www.ludumdare.com/compo/ludum-dare-29/?action=preview&uid=4198"
	},
	{
		"name": "delfino",
		"comment": "Fun, it gets crazy trying to keep up...",
		"date": "4-29-14",
		"link": "http://www.ludumdare.com/compo/ludum-dare-29/?action=preview&uid=20596"
	},
	{
		"name": "awppy",
		"comment": "Does a great job at showing how to play within the game itself thanks to the clean, simple visuals...",
		"date": "4-29-14",
		"link": "http://www.ludumdare.com/compo/ludum-dare-29/?action=preview&uid=18868"
	},
	{
		"name": "Kino333",
		"comment": "I love it, and not just becuase its cats! :3 Twas a lot of fun and was really fricken difficult.",
		"date": "4-28-14",
		"link": "http://www.ludumdare.com/compo/ludum-dare-29/?action=preview&uid=36661"
	}
]
