{
	
	"unclaimedloot": {
		"date":"10-25-2021",
		"prototype": true,
		"title": "Unclaimed Loot",
		"icon": "/img/unclaimedloot-icon.png",
		"link": "/unclaimedloot/",
		"img": "/img/unclaimedloot.png",
		"hoverimg": "",
		"tagline": "To the highest bidder go the spoils!",
		"pitch": "What happens to the chest in town where over-encumbered adventurers store their gear, potions, and other valuables in when they never return from their quest? The local shopkeeper auctions them off to the highest bidder! This is your chance to nab illustrious spoils from far off lands without ever risking your neck – but you aren't the only opportunistic knave in town! Alongside three other eager bidders you must bet your gold wisely based on only a glance into the chest and the weight of the items combined. Winning the auction could still mean defeat if you bid too high, but get your wager just right and your loot can be sold to fund even greater acquisitions!",
		"release-statement": "Created in just over 6 hours for the #6hourspookyjam 2021 hosted by Louisville Makes Games.",

		"jam": {
			"title": "#6hourspookyjam 2021",
			"theme": "Spooky",
			"link": "https://itch.io/jam/6hourspookyjam-2021"
		},
		"team": [{
				"name": "Alex Bezuska",
				"link": "http://alexbezuska.com",
				"role": "Game Designer, Programmer"
			},
			{
				"name": "Eric Lathrop",
				"link": "http://ericlathrop.com",
				"role": "Game Designer, Programmer"
			}
		],
		"trailer": "",
		"screenshots": [
			"/img/unclaimedloot-ss-0.png"
		],
		"media": [

		],
		"storeButtons": {
			"itch": "https://two-scoop-games.itch.io/unclaimed-loot"
		}
	},
	"spookysingles": {
		"date":"10-25-2020",
		"prototype": true,
		"title": "Spooky Singles",
		"icon": "/img/spookysingles-icon.png",
		"link": "/spookysingles/",
		"img": "/img/spookysingles.png",
		"hoverimg": "",
		"tagline": "The official dating app of the afterlife!",
		"pitch": "Create your own spooky monster dating profile and start chatting with hot ghouls today! Completely free Halloween fun from Two Scoop Games!",
		"release-statement": "Created in just over 6 hours for the #6hourspookyjam 2021 hosted by Louisville Makes Games.",

		"jam": {
			"title": "#6hourspookyjam 2021",
			"theme": "Spooky",
			"link": "https://itch.io/jam/6hourspookyjam-2021"
		},
		"team": [{
				"name": "Alex Bezuska",
				"link": "http://alexbezuska.com",
				"role": "Game Designer, Programmer"
			},
			{
				"name": "Eric Lathrop",
				"link": "http://ericlathrop.com",
				"role": "Game Designer, Programmer"
			}
		],
		"trailer": "",
		"screenshots": [
			"/img/spookysingles-ss-0.png"
		],
		"media": [

		],
		"storeButtons": {
			"web": "https://spooky.singles"
		}
	},
	"movingin": {
		"date": "01-01-2019",
		"release": true,
		"title": "Moving In",
		"icon": "/img/movingin-icon.png",
		"logo-alt": "Moving In by Two Scoop Games",
		"link": "/movingin/",
		"img": "/img/movingin.png",
		"hoverimg": "",
		"tagline": "",
		"pitch": "A cooperative card game about relationships, furniture shopping, and compromise",
		"notice-me": {
			"text": "If you are a game publisher who can help us get Moving In into stores we are interesed in talking to you!",
			"cta-button": {
				"url": "mailto:info@twoscoopgames.com?subject=We%20would%20love%20to%20publish%20Moving%20In!",
				"text": "Contact us today!"
			}
		},
		"description": "For 2 players\nAges 8 and up\n Moving In is a cooperative game, i.e. a game where the players do not play against each other but work together towards a common goal. In this case they are partners moving in together and starting their first shared home. Each partner has their own personality and sense of style consisting of colors and styles they secretly love or hate. Partners must pay attention to the actions and choices of the other to learn about their personality. The partners must not have anything they hate in their home, and have one item they love. Through observation, deduction, and cooperation this couple must make the home work for them, or else they go their separate ways",
		"features": [
			"This is a free print-and-play game, feel free to print a copy, cut it out and enjoy with friends!",
			"Join our mailing list to find out about future Moving In news!"
		],
		"release-statement": "Free to print and play!",
		"jam": {
			"title": "Global Game jam",
			"date": "Jan 25-27, 2019",
			"theme": "What home means to you",
			"link": "https://globalgamejam.org/2019/games/moving-1"
		},
		"team": [{
				"name": "Alex Bezuska",
				"link": "http://alexbezuska.com",
				"role": "Designer, Artist"
			},
			{
				"name": "Eric Lathrop",
				"link": "http://ericlathrop.com",
				"role": "Designer"
			},
			{
				"name": "Barry Rowe",
				"link": "http://roaringcatgames.com",
				"role": "Designer"
			}
		],
		"trailer": "dGgbLqy76uY",
		"screenshots": [
			"/img/movingin-ss-0.png",
			"/img/movingin-ss-1.png",
			"/img/movingin-ss-2.png",
			"/img/movingin-ss-3.png",
			"/img/movingin-ss-4.png",
			"/img/movingin-ss-5.png"
		],
		"hashtag": "",
		"likeurl": "http://twoscoopgames.com/movingin",
		"media": [

		],
		"storeButtons": {
			"printandplay": "http://bit.ly/playmovingin",
			"mailinglist": "http://bit.ly/movingingame"
		}
	},
	
	"fortunedicevr": {
		"date":"10-28-2018",
		"prototype": true,
		"title": "Fortune Dice VR",
		"icon": "/img/fortunedicevr-icon.png",
		"link": "/fortunedicevr/",
		"img": "/img/fortunedicevr.png",
		"hoverimg": "",
		"tagline": "",
		"pitch": "Roll 6 different dice in VR to see your spooky fortune.",
		"release-statement": "Playable Prototype with Windows Mixed Reality Headsets / Vive",

		"jam": {
			"title": "6 hour Spooky Jam 2018",
			"theme": "Halloween Themed",
			"link": "https://two-scoop-games.itch.io/spooky-fortune-telling-dice-vr"
		},
		"team": [{
				"name": "Alex Bezuska",
				"link": "http://alexbezuska.com",
				"role": "Designer, 3D Artist, Writer"
			},
			{
				"name": "Eric Lathrop",
				"link": "http://ericlathrop.com",
				"role": "Designer, Programmer"
			},
			{
				"name": "Cara Bezuska",
				"link": "http://howdycara.com",
				"role": "Designer, Texture Artist, Writer"
			}
		],
		"trailer": "",
		"screenshots": [
			"/img/fortunedicevr-ss-0.png"
		],
		"media": [

		],
		"storeButtons": {
			"itch": "https://two-scoop-games.itch.io/spooky-fortune-telling-dice-vr"
		}
	},
	"fineage": {
		"date": "01-01-2018",
		"prototype": true,
		"title": "Fineage",
		"icon": "/img/fineage-icon.png",
		"link": "/fineage/",
		"img": "/img/fineage.png",
		"hoverimg": "",
		"cornerBand": "",
		"tagline": "",
		"pitch": "Transmit charcteristics of your fish to your descendants on each playthrough.",
		"release-statement": "",

		"jam": {
			"title": "Global Game Jam 2018",
			"theme": "Transmission",
			"link": "https://globalgamejam.org/2018/games/fineage"
		},
		"team": [{
				"name": "Alex Bezuska",
				"link": "http://alexbezuska.com",
				"role": "Designer, Character Artist"
			},
			{
				"name": "Eric Lathrop",
				"link": "http://ericlathrop.com",
				"role": "Designer, Programmer"
			},
			{
				"name": "Cara Bezuska",
				"link": "http://howdycara.com",
				"role": "Designer, Artist"
			}
		],
		"trailer": "",
		"screenshots": [
			"/img/fineage-ss-0.png",
			"/img/fineage-ss-1.png",
			"/img/fineage-ss-2.png",
			"/img/fineage-ss-3.png"
		],
		"media": [

		],
		"storeButtons": {
			"web": "https://two-scoop-games.itch.io/fineage"
		}
	},
	"duolastic": {
		"date": "06-01-2017",
		"prototype": true,
		"title": "Duolastic",
		"icon": "/img/duolastic-icon.png",
		"link": "/duolastic/",
		"img": "/img/duolastic.png",
		"hoverimg": "/img/duolastic-hover.gif",
		"cornerBand": "",
		"tagline": "Challenge your friends anytime, anywhere!",
		"pitch": "Online multiplayer game where you can send a link and challenge anyone.",
		"release-statement": "(Playable browser version coming soon)",

		"jam": {
			"title": "Global Game Jam 2017",
			"theme": "Waves",
			"link": "http://globalgamejam.org/2016/games/morning-ritual-13"
		},
		"team": [{
				"name": "Alex Bezuska",
				"link": "http://alexbezuska.com",
				"role": "Designer, Artist, Animator"
			},
			{
				"name": "Eric Lathrop",
				"link": "http://ericlathrop.com",
				"role": "Designer, Programmer"
			}
		],
		"additional-credits": [{
			"role": "Music and sound effects",
			"name": "additional-credits here",
			"link": "https://github.com/TwoScoopGames/Duolastic/blob/master/credits.md"
		}],
		"trailer": "e94OgJhveIw",
		"screenshots": [
			"/img/duolastic-ss-0.png",
			"/img/duolastic-ss-1.png",
			"/img/duolastic-ss-2.png",
			"/img/duolastic-ss-3.png"
		],
		"media": [

		],
		"storeButtons": {

		}
	},
	
	"clusterjunk": {
		"date": "09-01-2016",
		"prototype": true,
		"title": "Cluster Junk",
		"icon": "/img/clusterjunk-icon.png",
		"link": "/clusterjunk/",
		"img": "/img/clusterjunk.png",
		"cornerBand": "",
		"tagline": "The Secret of Trash Island",
		"description": "There are millions of tons of trash floating in the oceans. So what goes on while no one is looking in these trash piles? Explore the garbage of humans and try to become the largest trash island in the sea! But hurry, don't let the timer run out! ",
		"pitch": "There are millions of tons of trash floating in the oceans. So what goes on while no one is looking in these trash piles?",
		"release-statement": "",
		"team": [{
				"name": "Eric Lathrop",
				"link": "http://ericlathrop.com",
				"role": "Designer, Programmer"
			},
			{
				"name": "Alex Bezuska",
				"link": "http://alexbezuska.com",
				"role": "Designer, Artist, Animator, Programmer"
			},
			{
				"name": "Cara Smith",
				"link": "http://howdycara.com",
				"role": "Designer, Artist, Writer"
			},
			{
				"name": "Ben Wiley",
				"link": "http://twitter.com/@benwiley4000",
				"role": "Composer, Sound Designer, Programmer"
			}
		],
		"trailer": "-C0G0idsxtw",
		"screenshots": [
			"/img/clusterjunk-ss-0.jpg",
			"/img/clusterjunk-ss-1.jpg",
			"/img/clusterjunk-ss-2.jpg",
			"/img/clusterjunk-ss-3.jpg"
		],
		"jam": {
			"title": "Ludum Dare 34",
			"date": "December 11th-14th, 2015",
			"theme": "Growing",
			"link": "http://ludumdare.com/compo/ludum-dare-34/?action=preview&uid=37347"
		},
		"media": [{
				"author": "VisNomadic",
				"title": "Indie Games: Cluster Junk",
				"link": "https://youtu.be/-C0G0idsxtw"
			},
			{
				"author": "Jupiter Hadley",
				"title": "Jupi Plays Indie Games: ALL THE INDIE GAMES [Kentucky Fried Pixels Jam] [Part 1]",
				"link": "https://youtu.be/xEMuKNkZ_a0?t=11m39s"
			}
		],
		"storeButtons": {
			"web": "http://www.twoscoopgames.com/clusterjunk/game"
		}
	},
	"electropolis": {
		"date": "03-01-2016",
		"prototype": true,
		"title": "Electropolis",
		"icon": "/img/electropolis-icon.png",
		"link": "/electropolis/",
		"img": "/img/electropolis.png",
		"cornerBand": "",
		"tagline": "Powered by Lightning!",
		"pitch": "Power a city by lightning by matching symbols in the clouds.",
		"description": "Power a city by lightning by matching symbols in the clouds.",
		"release-statement": "Available now to play in your browser.",
		"jam": {
			"title": "Train Jam 2016",
			"theme": "Maximum Catpacity",
			"link": "https://itch.io/jam/train-jam-2016/rate/57649"
		},
		"team": [{
				"name": "Alex Bezuska",
				"link": "http://alexbezuska.com",
				"role": "Designer, Artist, Animator, Programmer"
			},
			{
				"name": "Lindar K. Greenwood",
				"link": "http://thumpypuppy.com",
				"role": "Composer, Sound Designer"
			},
			{
				"name": "Eric Lathrop",
				"link": "http://ericlathrop.com",
				"role": "Designer, Programmer"
			},
			{
				"name": "Cara Smith",
				"link": "http://howdycara.com",
				"role": "Designer, Artist"
			},
			{
				"name": "Rex Soriano",
				"link": "http://twitter.com/@Lolo_r",
				"role": "Designer, Programmer"
			}
		],
		"trailer": "CSkmM16lr_8",
		"screenshots": [
			"/img/electropolis-ss-0.png",
			"/img/electropolis-ss-1.png",
			"/img/electropolis-ss-2.png",
			"/img/electropolis-ss-3.png"
		],
		"media": [{
			"author": "Jupiter Hadley",
			"title": "Jupi Plays Indie Games: ALL THE INDIE GAMES [Train Jam 2016] [Part 3]",
			"link": "https://youtu.be/Ox0YQLgTD1E?t=11m21s"
		}],
		"storeButtons": {
			"itch": "https://two-scoop-games.itch.io/electropolis"
		}
	},
	
	"morningritual": {
		"date": "01-01-2016",
		"prototype": true,
		"title": "Morning Ritual",
		"icon": "/img/morningritual-icon.png",
		"link": "/morningritual/",
		"img": "/img/morningritual.png",
		"hoverimg": "/img/morningritual.gif",
		"cornerBand": "",
		"tagline": "Good Morning!",
		"pitch": "Every morning we go through a delicate morning ritual to prepare ourselves for the onslaught of the day.",
		"description": "Every morning we go through a delicate morning ritual to prepare ourselves for the onslaught of the day.",
		"release-statement": "Available now to play in your browser.",
		"team": [{
				"name": "Eric Lathrop",
				"link": "http://ericlathrop.com",
				"role": "Designer, Programmer"
			},
			{
				"name": "Alex Bezuska",
				"link": "http://alexbezuska.com",
				"role": "Designer, Artist, Animator, Programmer"
			},
			{
				"name": "Cara Smith",
				"link": "http://howdycara.com",
				"role": "Designer, Artist"
			},
			{
				"name": "Chris Kincaid",
				"link": "http://twitter.com/@chriskincaid",
				"role": "Composer, Sound Designer"
			}
		],
		"trailer": "EfONONJ7GLU",
		"screenshots": [
			"/img/morningritual-ss-0.jpg",
			"/img/morningritual-ss-1.jpg",
			"/img/morningritual-ss-2.jpg",
			"/img/morningritual-ss-3.jpg",
			"/img/morningritual-ss-4.jpg"
		],
		"jam": {
			"title": "Global Game Jam 2016",
			"theme": "Ritual",
			"link": "http://globalgamejam.org/2016/games/morning-ritual-13"
		},
		"storeButtons": {
			"webtouch": "http://twoscoopgames.com/morningritual/game/",
			"itch": "https://two-scoop-games.itch.io/morning-ritual"
		}
	},

	"treatmentandcontrol": {
		"date":"08-01-2015",
		"prototype": true,
		"title": "Treatment and Control",
		"icon": "/img/treatmentandcontrol-icon.png",
		"link": "/treatmentandcontrol/",
		"img": "/img/treatmentandcontrol.png",
		"cornerBand": "",
		"tagline": "Who is in control?",
		"pitch": "Congratulations on your new job, citizen! You must report for duty on Monday to office #74 to distribute vital medication to our workforce.",
		"release-statement": "Available now to play in your browser.",
		"description": "Congratulations on your new job, citizen! You must report for duty on Monday to office #74 to distribute vital medication to our workforce.",
		"jam": {
			"title": "Ludum Dare 33",
			"date": "August 21st-24th, 2015",
			"theme": "You are the Monster",
			"link": "http://ludumdare.com/compo/ludum-dare-33/?action=preview&uid=37347"
		},
		"team": [{
				"name": "Alex Bezuska",
				"link": "http://alexbezuska.com",
				"role": "Designer, Artist, Writer, Animator"
			},
			{
				"name": "Chris Kincaid",
				"link": "http://twitter.com/@Kincaid_Music",
				"role": "Composer, Sound Designer"
			},
			{
				"name": "Eric Lathrop",
				"link": "http://ericlathrop.com",
				"role": "Designer, Programmer"
			}
		],
		"trailer": "HeaWMsnfNdg",
		"screenshots": [
			"/img/treatmentandcontrol-ss-0.jpg",
			"/img/treatmentandcontrol-ss-1.jpg",
			"/img/treatmentandcontrol-ss-2.jpg",
			"/img/treatmentandcontrol-ss-3.jpg",
			"/img/treatmentandcontrol-ss-4.jpg"
		],
		"laurels": [{
			"image": "img/treatmentandcontrol-award1.svg",
			"title": "Jupi's Jam Favorites Ludum Dare 33",
			"link": "http://ludumdare.com/compo/author/twoscoopgames/"
		}],
		"media": [{
				"author": "Jupiter Hadley",
				"title": "Jupi's Jam Favorites Ludum Dare 33",
				"link": "http://fireside.gamejolt.com/post/jam-favorites-ludum-dare-33-part-1-uzbzpjci"
			},
			{
				"author": "Amy Napkins",
				"title": "Treatment and Control // The Matrix? (video)",
				"link": "https://www.youtube.com/watch?v=HeaWMsnfNdg"
			}
		],
		"storeButtons": {
			"web": "http://twoscoopgames.com/treatmentandcontrol/game/"
		}
	},
	
	
	"uprooted": {
		"date":"04-20-2015",
		"prototype": true,
		"title": "Uprooted",
		"icon": "/img/uprooted-icon.png",
		"link": "/uprooted/",
		"img": "/img/uprooted.png",
		"cornerBand": "",
		"tagline": "Charge, jump, DESTROY!",
		"description": "Help a lost carrot get back to the carrot patch, but watch out for evil rabbits!",
		"pitch": "Help a lost carrot get back to the carrot patch, but watch out for evil rabbits!",
		"release-statement": "Available now to play in your browser.",
		"jam": {
			"title": "Ludum Dare 32",
			"date": "April 17th-20th, 2015",
			"theme": "An Unconventional Weapon",
			"link": "http://ludumdare.com/compo/ludum-dare-32/?action=preview&uid=37347"
		},
		"team": [{
				"name": "Alex Bezuska",
				"link": "http://alexbezuska.com",
				"role": "Designer, Artist, Animator"
			},
			{
				"name": "Eric Lathrop",
				"link": "http://ericlathrop.com",
				"role": "Designer, Programmer"
			}
		],
		"additional-credits": [{
			"name": "rolemusic",
			"link": "http://rolemusic.sawsquarenoise.com/",
			"role": "Music"
		}],
		"trailer": "oYfJlpYClls",
		"screenshots": [
			"/img/uprooted-ss-0.png",
			"/img/uprooted-ss-1.png",
			"/img/uprooted-ss-2.png",
			"/img/uprooted-ss-3.png"
		],
		"media": [{
				"author": "Larry Chupacabra",
				"title": "Larry Does Ludum 32 - #3  (video)",
				"link": "https://www.youtube.com/watch?v=d-LfFti-V1o"
			},
			{
				"author": "TaeKyung TV",
				"title": "Carrot Special Games // Funny Games  (video)",
				"link": "https://www.youtube.com/watch?v=Ps-8g_LPZPw"
			}
		],
		"storeButtons": {
			"web": "http://twoscoopgames.com/uprooted/game",
			"itch": "https://two-scoop-games.itch.io/uprooted"
		}
	},
	"thedaytheworldchanged": {
		"date":"01-01-2015",
		"prototype": true,
		"title": "The Day the World Changed",
		"icon": "/img/thedaytheworldchanged-icon.png",
		"link": "/thedaytheworldchanged/",
		"img": "/img/thedaytheworldchanged.png",
		"tagline": "One event can change a lifetime",
		"description": "The Day the World Changed is a somber reflection on the troubles a new baby can bring to a family and how it can affect the whole community.",
		"pitch": "A somber reflection on the troubles a new baby can bring to a family and how it can affect the whole community.",
		"release-statement": "Available now to play in your browser.",
		"trailer": "8kXhCsKgdNc",
		"team": [{
				"name": "Alex Bezuska",
				"link": "http://alexbezuska.com",
				"role": "Designer, Artist, Animator"
			},
			{
				"name": "Eric Lathrop",
				"link": "http://ericlathrop.com",
				"role": "Designer, Programmer"
			}
		],
		"additional-credits": [{
			"name": "Wake",
			"link": "https://soundcloud.com/wake",
			"role": "Music"
		}],
		"screenshots": [
			"/img/thedaytheworldchanged-ss-0.png",
			"/img/thedaytheworldchanged-ss-1.png",
			"/img/thedaytheworldchanged-ss-2.png",
			"/img/thedaytheworldchanged-ss-3.png"
		],
		"jam": {
			"title": "Global Game Jam 2015",
			"date": "",
			"theme": "What do we do now?",
			"link": "http://globalgamejam.org/2015/games/day-world-changed"
		},
		"media": [{
				"author": "Larry Chupacabra",
				"title": "GGJ 2015 - The Day the World Changed  (video)",
				"link": "https://www.youtube.com/watch?v=LMYAKVxtKfk"
			},
			{
				"author": "YayGaming",
				"title": "YAY The Day The World Changed - Well Then...  (video)",
				"link": "https://www.youtube.com/watch?v=Ny4kHKdt68c"
			}
		],
		"storeButtons": {
			"web": "http://twoscoopgames.com/thedaytheworldchanged/game"
		}
	},
	"desserts": {
		"date":"12-08-2014",
		"prototype": true,
		"title": "Desserts Killed Your Daddy",
		"icon": "/img/desserts-icon.png",
		"link": "/desserts/",
		"img": "/img/desserts.png",
		"cornerBand": "",
		"tagline": "Fast-paced score-based arcade game",
		"description": "Defeat as many desserts as possible while keeping your health up with hearts. Enemies you will face are: 3 types of cake turtles, 4 types of walking cookies, and the terrifying GINGERBOSS! Can you get to 50 points and defeat the GINGERBOSS? Cans have a chance of containing a heart which you will need to refill your health. Game created for the Ludum Dare 31 Game Jam December 2014.",
		"pitch": "Can you get to 50 points and defeat the GINGERBOSS?",
		"release-statement": "Available now to play in your browser.",
		"jam": {
			"title": "Ludum Dare 31",
			"date": "December 5th-8th, 2014",
			"theme": "Entire Game on One Screen",
			"link": "http://ludumdare.com/compo/ludum-dare-31/?action=preview&uid=37347"
		},
		"team": [{
				"name": "Alex Bezuska",
				"link": "http://alexbezuska.com",
				"role": "Designer, Artist, Animator"
			},
			{
				"name": "Eric Lathrop",
				"link": "http://ericlathrop.com",
				"role": "Designer, Programmer"
			}
		],
		"additional-credits": [{
			"name": "Ill Storms",
			"link": "https://soundcloud.com/klownikus",
			"role": "Music"
		}],
		"trailer": "3R9OXxwA97A",
		"screenshots": [
			"/img/desserts-ss-0.png",
			"/img/desserts-ss-1.png",
			"/img/desserts-ss-2.png",
			"/img/desserts-ss-3.png"
		],
		"media": [{
				"author": "Larry Chupacabra",
				"title": "Ludum Dare 31 - Part 1 ",
				"link": "http://youtu.be/6nn34KYVxPM?t=8m7s"
			},
			{
				"author": "Jupiter Hadley",
				"title": "Jupi Plays Indie Games: ALL THE INDIE GAMES [Ludum Dare 31] [Part 7]  (video)",
				"link": "http://youtu.be/bpNoFf0QyBM?t=13m40s"
			},
			{
				"author": "Lisa Brown",
				"title": "Feedback Stream - Ludum Dare 30 - Desserts Killed Your Daddy  (video)",
				"link": "https://www.youtube.com/watch?v=qYmFSNpngnQ"
			}
		],
		"storeButtons": {
			"web": "http://twoscoopgames.com/desserts/game/"
		}
	},
	"stanleysqueaks": {
		"date":"08-25-2014",
		"prototype": true,
		"title": "Stanley Squeaks and the Emerald Burrito",
		"icon": "/img/stanleysqueaks-logo.png",
		"link": "/stanleysqueaks/",
		"img": "/img/stanleysqueaks.png",
		"cornerBand": "",
		"tagline": "Watch your step!",
		"pitch": "Help Stanley solve puzzles and avoid traps in an ancient temple while on a quest to obtain the elusive emerald burrito.",
		"release-statement": "Available now to play in your browser.",
		"description": "Stanley Squeaks is an adventuring hamster on a quest to obtain the Emerald Burrito. Help Stanley solve puzzles and avoid traps in an ancient temple. This game is a puzzle platformer where the blocks you touch on the way to the treasure are destroyed on the way out, making it difficult to get out alive!",
		"jam": {
			"title": "Ludum Dare 30",
			"date": "August 22nd-25th, 2014",
			"theme": "Connected Worlds",
			"link": "http://ludumdare.com/compo/ludum-dare-30/?action=preview&uid=37347"
		},
		"team": [{
				"name": "Alex Bezuska",
				"link": "http://alexbezuska.com",
				"role": "Designer, Artist, Animator"
			},
			{
				"name": "Eric Lathrop",
				"link": "http://ericlathrop.com",
				"role": "Designer, Programmer"
			}
		],
		"additional-credits": [{
			"name": "Wai Ying Lam",
			"link": "http://twitter.com/@WaiYingLam",
			"role": "Programmer"
		}],
		"trailer": "IajbsXR5Cg0",
		"screenshots": [
			"/img/stanleysqueaks-ss-0.png",
			"/img/stanleysqueaks-ss-1.png",
			"/img/stanleysqueaks-ss-2.png",
			"/img/stanleysqueaks-ss-3.png",
			"/img/stanleysqueaks-ss-4.png",
			"/img/stanleysqueaks-ss-5.png"
		],
		"media": [{
				"author": "WDRB Louisville",
				"title": "Stanley Squeaks on local TV News",
				"link": "http://www.wdrb.com/story/28746986/finger-derpy-mobile-game-launches-horse-racing-app-just-in-time-for-derby-season"
			},
			{
				"author": "Lisa Brown",
				"title": "Lisa and Nick of Insomniac Games play Stanley Squeaks and the Emerald Burrito  (video)",
				"link": "https://www.youtube.com/watch?v=kJgd3HtUXpI"
			},
			{
				"author": "Larry Chupacabra",
				"title": "Ludum Dare 30 - Part 3 - Game Dev Lou: Indie Community Spotlight  (video)",
				"link": "https://youtu.be/A1ntnx3qpgg?t=36m35s"
			}
		],
		"storeButtons": {
			"web": "http://twoscoopgames.com/stanleysqueaks/game"
		}
	},
	"syrush": {
		"date": "08-04-2014",
		"release": true,
		"title": "SyRUSH",
		"icon": "/img/SyRUSH-large-icon3.png",
		"link": "/syrush/",
		"img": "/img/syrush.png",
		"tagline": "The official Waffle simulator of breakfast!",
		"pitch": "Feel the rush in this fast-paced arcade style game where you tap waffle squares to fill your waffle with the perfect distribution of mouth-watering toppings.",
		"description": "Feel the rush in this fast-paced arcade style game where you tap waffle squares to fill your waffle with the perfect distribution of mouth-watering toppings.",
		"release-statement": "Play free on the web (requires touchscreen)",
		"features": [
			"Fast-paced infinite high score game!",
			"Ramps up speed as you impove your skills as a waffle chef!",
			"Designed for full ten-finger multi-touch!",
			"7 sugary toppings to master by adding powdered sugar, blueberries, strawberries, chocolate chips, and whipped cream!",
			"Fast-paced infinite high score game!"
		],
		"team": [{
				"name": "Alex Bezuska",
				"link": "http://alexbezuska.com",
				"role": "Designer, Artist, Animator"
			},
			{
				"name": "Eric Lathrop",
				"link": "http://ericlathrop.com",
				"role": "Designer, Programmer"
			}
		],
		"additional-credits": [{
			"name": "RoccoW",
			"link": "https://soundcloud.com/roccow",
			"role": "Music"
		}],
		"trailer": "063ccMxUd1s",
		"screenshots": [
			"/img/syrush-ss-4.png",
			"/img/syrush-ss-1.png",
			"/img/syrush-ss-2.png",
			"/img/syrush-ss-3.png"
		],
		"media": [{
				"author": "AppSpy",
				"title": "'SyRUSH is the waffle simulator we've all been waiting for.'",
				"link": "http://www.appspy.com/news/9026/syrush-is-the-waffle-simulator-weve-all-been-waiting-for"
			},
			{
				"author": "Larry Chupacabra",
				"title": "SyRush: Arcade Waffles for Breakfast! - Mobile Game Review (iOS) (video)",
				"link": "https://www.youtube.com/watch?v=kb5TbsCRlxw"
			},
			{
				"author": "Pookybox - Cokamouse",
				"title": "Syrush: A virtual breakfast frenzy – Review",
				"link": "http://www.pookybox.com/syrush-virtual-breakfast-frenzy-review/"
			}
		],
		"storeButtons": {
			"webtouch": "http://twoscoopgames.com/syrush/game/"
		}
	},
	
	"scurry": {
		"date": "06-30-2014",
		"release": true,
		"title": "Scurry",
		"icon": "/img/scurry-logo.png",
		"link": "/scurry/",
		"img": "/img/scurry.png",
		"tagline": "Run, jump, survive.",
		"pitch": "Scurry is a game where you play as a cockroach who is running through a grocery store, avoid obstacles, get sweet power-ups, and try not to fall! Try to get a high score and beat your friends!",
		"release-statement": "Available on iPhone, iPad, & iPod Touch.",
		"description": "Scurry is a game where you play as a cockroach who is running through a grocery store, avoid obstacles, get sweet power-ups, and try not to fall! Try to get a high score and beat your friends!",
		"team": [{
				"name": "Alex Bezuska",
				"link": "http://alexbezuska.com",
				"role": "Designer, Artist, Animator"
			},
			{
				"name": "Eric Lathrop",
				"link": "http://ericlathrop.com",
				"role": "Designer, Programmer"
			}
		],
		"additional-credits": [{
			"name": "RoccoW",
			"link": "https://soundcloud.com/roccow",
			"role": "Music"
		}],
		"trailer": "oGpBYrIkG-c",
		"screenshots": [
			"/img/scurry-ss-0.png",
			"/img/scurry-ss-6.png",
			"/img/scurry-ss-1.png",
			"/img/scurry-ss-2.png",
			"/img/scurry-ss-3.png",
			"/img/scurry-ss-4.png",
			"/img/scurry-ss-5.png"
		],
		"media": [{
				"author": "Larry Chupacabra",
				"title": "Scurry: Run, Jump, Survive - Mobile Game Review (video)",
				"link": "https://youtu.be/oGpBYrIkG-c"
			},
			{
				"author": "YAYGaming",
				"title": "YAY Scurry - Run Little Roach! (video)",
				"link": "https://youtu.be/hlQJLsouuiY"
			}
		],
		"storeButtons": {
			"web": "http://twoscoopgames.com/scurry/game",
			"chrome": "https://chrome.google.com/webstore/detail/scurry/djoifiholmpdceikfaajckcjepbjolof",
			"itch": "https://two-scoop-games.itch.io/scurry"
		}
	},
	"kickbotclassic": {
		"date": "04-30-2014",
		"release": true,
		"title": "Kick Bot (Classic)",
		"icon": "/img/kickbotclassic-logo.png",
		"logo-alt": "Kick Bot - A game that will really kick your bot! from Two Scoop Games.",
		"link": "/kickbotclassic/",
		"img": "/img/kickbotclassic.png",
		"hoverimg": "/img/kickbotclassic-hover.gif",
		"tagline": "A game that will really kick your bot!",
		"pitch": "This game is all about quick reflexes and fast action. Maneuver through a procedurally-generated terrain of obstacles like spikes and laser beams. One wrong move and you’re a heap of metal. This game will drive you up the wall!",
		"release-statement": "Available now on the Chrome Web Store and Itch.io!",
		"jam": {
			"title": "Flappy Jam",
			"theme": "Make a hard, almost unplayable game",
			"link": "https://itch.io/jam/flappyjam"
		},
		"team": [{
				"name": "Alex Bezuska",
				"link": "http://alexbezuska.com",
				"role": "Designer, Artist, Animator"
			},
			{
				"name": "Eric Lathrop",
				"link": "http://ericlathrop.com",
				"role": "Designer, Programmer"
			}
		],
		"additional-credits": [{
			"name": "rolemusic",
			"link": "http://rolemusic.sawsquarenoise.com/",
			"role": "Music"
		}],
		"notice-me": {
			"text": "We are looking for beta testers for the new Kick Bot, coming soon to consoles and PC!",
			"cta-button": {
				"url": "http://bit.ly/kbdxbeta",
				"text": "Sign up now!"
			}
		},
		"trailer": "ek1yJr6Od2I",
		"screenshots": [
			"/img/kickbotclassic-ss-0.png",
			"/img/kickbotclassic-ss-1.png",
			"/img/kickbotclassic-ss-2.png",
			"/img/kickbotclassic-ss-3.png",
			"/img/kickbotclassic-ss-4.png",
			"/img/kickbotclassic-ss-5.png",
			"/img/kickbotclassic-ss-6.png"
		],
		"hashtag": "",
		"likeurl": "",
		"media": [{
				"author": "Larry Chupacabra",
				"title": "Flappy Jam Showcase Finale! (video)",
				"link": "https://www.youtube.com/watch?v=AURN8-xu_tQ&feature=youtu.be&t=3m23s"
			},
			{
				"author": "CinnamonToastKen",
				"title": "Flappy Bird Clones Ep 1 (video)",
				"link": "http://youtu.be/FPalexORVYI?t=3m28s"
			},
			{
				"author": "Flappy Jam",
				"title": "Ranked #23 in coolness, #38 overall (of 770)",
				"link": "http://itch.io/jam/flappyjam/rate/2676"
			}
		],
		"storeButtons": {
			"web": "http://twoscoopgames.com/kickbot/game/",
			"chrome": "https://chrome.google.com/webstore/detail/kick-bot/lafjmgdfokjjbcbhbmcajlommahhgnlk",
			"itch": "https://two-scoop-games.itch.io/kick-bot-classic"
		}
	},
	"fluffykins": {
		"date":"04-28-2014",
		"prototype": true,
		"title": "Mr. Fluffykins' Great Sorting Adventure",
		"icon": "/img/fluffykins-logo.png",
		"link": "/fluffykins/",
		"img": "/img/fluffykins.png",
		"hoverimg": "/img/fluffykins-hover.gif",
		"tagline": "AKA Where Your Internet Comes From",
		"description": "​Take a peek inside your home internet router to see how all those crazy cat pictures actually get to your computer. Play as Mr. Fluffykins, the cat who sorts your email and deletes your spam. Try to keep the data flowing as long as you can! This game is a Two Scoop collaboration with team Pancake, our Ludum Dare 29 team which consisted of: Aaron Smith, Alex Bezuska, Anthony Quisenberry, Eric Lathrop, Rex Soriano, and Nathan Hutchens.​",
		"pitch": "​Take a peek inside your home internet router to see how all those crazy cat pictures actually get to your computer.",
		"release-statement": "Available now to play in your browser.",
		"trailer": "ZsB_soaHNpI",
		"jam": {
			"title": "Ludum Dare 29",
			"date": "April 25th-28th, 2014",
			"theme": "Beneath the Surface",
			"link": "http://ludumdare.com/compo/ludum-dare-29/?action=preview&uid=37347"
		},
		"team": [{
				"name": "Alex Bezuska",
				"link": "http://alexbezuska.com",
				"role": "Designer, Artist, Animator"
			},
			{
				"name": "Nathan Hutchens",
				"link": "http://twitter.com/TheLucidBard",
				"role": "Composer, Sound Designer"
			},
			{
				"name": "Eric Lathrop",
				"link": "http://ericlathrop.com",
				"role": "Designer, Programmer"
			},
			{
				"name": "Rex Soriano",
				"link": "http://twitter.com/lolo_r",
				"role": "Designer, Programmer"
			},
			{
				"name": "Anthony Quisenberry",
				"link": "http://twitter.com/aqquisenberry",
				"role": "Designer, Programmer"
			},
			{
				"name": "Aaron Smith",
				"link": "http://twitter.com/aarondoodles",
				"role": "Character Artist, Concept Artist"
			}
		],
		"screenshots": [
			"/img/fluffykins-ss-0.png",
			"/img/fluffykins-ss-1.png",
			"/img/fluffykins-ss-2.png",
			"/img/fluffykins-ss-3.png",
			"/img/fluffykins-ss-4.png",
			"/img/fluffykins-ss-5.png",
			"/img/fluffykins-ss-6.png",
			"/img/fluffykins-ss-7.png"
		],
		"laurels": [{
			"image": "img/fluffykins-award1.svg",
			"title": "Jupi's Jam Favorites Ludum Dare 30",
			"link": "http://ludumdare.com/compo/author/twoscoopgames/"
		}],
		"media": [{
				"author": "Sylvain Wenger",
				"title": "Ludum Dare 29 Best games list",
				"link": "https://gist.github.com/bigsylvain/c11b68f11cc3ccd0915e"
			},
			{
				"author": "Larry Chupacabra",
				"title": "Ludum Dare 29 Showcase - Part 2  (video)",
				"link": "https://www.youtube.com/watch?v=ZqtwPW9QMLk&feature=youtu.be&t=4m30s"
			},
			{
				"author": "Jupiter Hadley",
				"title": "Jupi Plays Indie Games: ALL THE INDIE GAMES [Ludum Dare 29] [Part 4]  (video)",
				"link": "https://www.youtube.com/watch?v=as-BlCZWXm0&feature=youtu.be&t=12m26s"
			}
		],
		"storeButtons": {
			"web": "http://twoscoopgames.com/fluffykins/game",
			"itch": "https://two-scoop-games.itch.io/mr-fluffykins-great-sorting-adventure"
		}
	},
	"apartment213": {
		"date":"01-26-2014",
		"prototype": true,
		"title": "Apartment 213",
		"icon": "/img/apt213-logo.png",
		"link": "/apartment213/",
		"img": "/img/apartment213.png",
		"hoverimg": "/img/apartment213-hover.gif",
		"tagline": "4 Characters, 4 Perspectives",
		"description": "This is a game about the ways several characters see the small apartment that their lives cross in. You start from the perspective of a small mouse and slowly switch perspectives with the antagonist of each character's own personal stories. These stories are colored by personal bias and each character's own concept of the apartment they interact in reveals more about that character than it does the apartment itself.",
		"pitch": "A game about the ways several characters see the small apartment that their lives cross in.",
		"release-statement": "Available now to play in your browser.",
		"team": [{
				"name": "Alex Bezuska",
				"link": "http://alexbezuska.com",
				"role": "Designer, Artist"
			},
			{
				"name": "Eric Lathrop",
				"link": "http://ericlathrop.com",
				"role": "Designer, Programmer"
			},
			{
				"name": "Mike Revel",
				"link": "http://twitter.com/mjrevel",
				"role": "Designer, Sound Designer, Programmer"
			},
			{
				"name": "Mattie Richards",
				"link": "http://twitter.com/mintchipleaf",
				"role": "Designer, Programmer"
			}
		],
		"trailer": "FffkvbF-AQQ",
		"screenshots": [
			"/img/apt213-ss-0.png",
			"/img/apt213-ss-1.png",
			"/img/apt213-ss-2.png",
			"/img/apt213-ss-3.png",
			"/img/apt213-ss-4.png"
		],
		"jam": {
			"title": "Global Game Jam 2014",
			"date": "Janurary 24-26 2014",
			"theme": "we don't see things as they are, we see them as we are",
			"description": "The official Global Game Jam page for Apartment 213.",
			"link": "http://globalgamejam.org/2014/games/apartment-213"
		},
		"storeButtons": {
			"web": "http://twoscoopgames.com/apartment213/game"
		}
	}
}
